ubuntu@ec2-18-195-167-219.eu-central-1.compute.amazonaws.com:22
ubuntu@ec2-18-185-127-203.eu-central-1.compute.amazonaws.com:22
ubuntu@ec2-18-197-73-6.eu-central-1.compute.amazonaws.com:22
ubuntu@ec2-18-184-143-165.eu-central-1.compute.amazonaws.com:22
ubuntu@ec2-18-194-139-158.eu-central-1.compute.amazonaws.com:22
ubuntu@ec2-54-93-233-31.eu-central-1.compute.amazonaws.com:22
